^C:\USERS\FRANK DYE\DESKTOP\PROGRAMMING PROJECTS\CSC340-OPTIONALHW2\CSC340-OPTIONALHW2\DEBUG\CSC340-OPTIONAL2.OBJ|C:\USERS\FRANK DYE\DESKTOP\PROGRAMMING PROJECTS\CSC340-OPTIONALHW2\CSC340-OPTIONALHW2\DEBUG\DOUBLELINKEDLIST.OBJ
C:\USERS\FRANK DYE\DESKTOP\PROGRAMMING PROJECTS\CSC340-OPTIONALHW2\CSC340-OPTIONALHW2\DEBUG\CSC340-OPTIONALHW2.ILK
C:\USERS\FRANK DYE\DESKTOP\PROGRAMMING PROJECTS\CSC340-OPTIONALHW2\CSC340-OPTIONALHW2\DEBUG\CSC340-OPTIONALHW2.EXE
C:\USERS\FRANK DYE\DESKTOP\PROGRAMMING PROJECTS\CSC340-OPTIONALHW2\CSC340-OPTIONALHW2\DEBUG\CSC340-OPTIONALHW2.PDB
